<svg width="6" height="6" viewBox="0 0 6 6" fill="none" xmlns="http://www.w3.org/2000/svg">
<path d="M5.625 3C5.625 3.36003 5.55664 3.69954 5.41992 4.01855C5.2832 4.33756 5.09408 4.61556 4.85254 4.85254C4.61556 5.09408 4.33756 5.2832 4.01855 5.41992C3.69954 5.55664 3.36003 5.625 3 5.625C2.63542 5.625 2.29362 5.55664 1.97461 5.41992C1.66016 5.2832 1.38216 5.09408 1.14062 4.85254C0.903645 4.61556 0.716797 4.33756 0.580078 4.01855C0.443359 3.69954 0.375 3.36003 0.375 3C0.375 2.63542 0.443359 2.29362 0.580078 1.97461C0.716797 1.66016 0.903646 1.38216 1.14062 1.14062C1.38216 0.903645 1.66016 0.716797 1.97461 0.580078C2.29362 0.443359 2.63542 0.375 3 0.375C3.36003 0.375 3.69954 0.443359 4.01855 0.580078C4.33756 0.716797 4.61556 0.903646 4.85254 1.14062C5.09408 1.38216 5.2832 1.66016 5.41992 1.97461C5.55664 2.29362 5.625 2.63542 5.625 3Z" fill="#DF421F"/>
</svg>
